{
  "port": 4000,
  "bundles": [
      "telnet-networking",
      "esse"
  ],
  "dataSources": {
    "YamlArea": {
      "require": "ranvier-datasource-file.YamlAreaDataSource"
    },
    "Yaml": {
      "require": "ranvier-datasource-file.YamlDataSource"
    },
    "YamlDirectory": {
      "require": "ranvier-datasource-file.YamlDirectoryDataSource"
    },
    "JsonDirectory": {
      "require": "ranvier-datasource-file.JsonDirectoryDataSource"
    }
  },
  "entityLoaders": {
    "accounts": {
      "source": "JsonDirectory",
      "config": {
        "path": "data/account"
      }
    },
    "players": {
      "source": "JsonDirectory",
      "config": {
        "path": "data/player"
      }
    },
    "areas": {
      "source": "YamlArea",
      "config": {
        "path": "bundles/[BUNDLE]/areas"
      }
    },
    "npcs": {
      "source": "Yaml",
      "config": {
        "path": "bundles/[BUNDLE]/areas/[AREA]/npcs.yml"
      }
    },
    "items": {
      "source": "Yaml",
      "config": {
        "path": "bundles/[BUNDLE]/areas/[AREA]/items.yml"
      }
    },
    "rooms": {
      "source": "Yaml",
      "config": {
        "path": "bundles/[BUNDLE]/areas/[AREA]/rooms.yml"
      }
    },
    "quests": {
      "source": "Yaml",
      "config": {
        "path": "bundles/[BUNDLE]/areas/[AREA]/quests.yml"
      }
    },
    "help": {
      "source": "YamlDirectory",
      "config": {
        "path": "bundles/[BUNDLE]/help"
      }
    }
  }
}
